{
    "Muon": {
        "nMax": 2,
        "features": [
            ["mu_pt", "muon_pt"],
            ["mu_eta", "muon_eta"],
            ["mu_phi", "muon_phi"],
            ["mu_q", "muon_charge"]
        ],
        "sort": "mu_pt"
    },
    "Jet": {
        "nMax": 1,
        "features": [
            ["jet_pt", "jet_pt"],
            ["jet_eta", "jet_eta"],
            ["jet_phi", "jet_phi"],
            ["jet_e", "jet_energy"]
        ],
        "sort": "jet_pt"
    },
    "BJet": {
        "nMax": 1,
        "features": [
            ["bjet_pt", "bjet_pt"],
            ["bjet_eta", "bjet_eta"],
            ["bjet_phi", "bjet_phi"],
            ["bjet_e", "bjet_energy"]
        ],
        "sort": "bjet_pt"
    },
    "MET": {
        "nMax": 1,
        "features": [
            ["MET_X", "MET_X"],
            ["MET_Y", "MET_Y"],
            ["MET_sum", "MET_sum"],
            ["MET_quad", "MET_quad"]
        ],
        "sort": "MET_sum"
    }
}
